/* XPM */
static char * title_5_inactive_xpm[] = {
"2 26 3 1",
" 	c None",
".	c #5f5f5f",
"+	c #5f5f5f",
"..",
"++",
"++",
"++",
"++",
"++",
"++",
"++",
"++",
"++",
"++",
"++",
"++",
"++",
"++",
"++",
"++",
"++",
"++",
"++",
"++",
"++",
"++",
"++",
"++",
"++"};
